…
## [1] 44

Cars and mileage

For this part we will use the mpg data set, you can access the data by first installing (using install.packages('ggplot2')) and then loading the package ggplot2 (using library(ggplot2)) into your R session. The mpg data includes information about fuel economy of popular car models for the years 1999 and 2008 as collected by the US Environmental Protection Agency. An answer should include a short paragraph of text for the explanation to a (human) reader, together with appropriate R code, outputs, and graphs.

ggplot2 = library(ggplot2);
ggplot2

## [1] "ggplot2"   "stats"     "graphics"  "grDevices" "utils"     "datasets" 
## [7] "methods"   "base"

mpg

## # A tibble: 234 x 11
##    manufacturer model    displ  year   cyl trans   drv     cty   hwy fl    class
##    <chr>        <chr>    <dbl> <int> <int> <chr>   <chr> <int> <int> <chr> <chr>
##  1 audi         a4         1.8  1999     4 auto(l f        18    29 p     comp
##  2 audi         a4         1.8  1999     4 manual f        21    29 p     comp
##  3 audi         a4         2    2008     4 manual f        20    31 p     comp
##  4 audi         a4         2    2008     4 auto(a f        21    30 p     comp
##  5 audi         a4         2.8  1999     6 auto(l f        16    26 p     comp
##  6 audi         a4         2.8  1999     6 manual f        18    26 p     comp
##  7 audi         a4         3.1  2008     6 auto(a f        18    27 p     comp
##  8 audi         a4 quat   1.8  1999     4 manual 4        18    26 p     comp
##  9 audi         a4 quat   1.8  1999     4 auto(l 4        16    25 p     comp
## 10 audi         a4 quat   2    2008     4 manual 4        20    28 p     comp
## #  with 224 more rows
…
Are cars in 2008 more fuel efficient than cars in 1999? Use graphs and summary statistics to answer this question. Explain your findings.

year_1999 <- subset(mpg, year == 1999)
year_2008 <- subset(mpg, year == 2008)
print(year_1999)

## # A tibble: 117 x 11
##    manufacturer model     displ  year   cyl trans  drv     cty   hwy fl    class
##    <chr>        <chr>     <dbl> <int> <int> <chr>  <chr> <int> <int> <chr> <chr>
##  1 audi         a4          1.8  1999     4 auto( f        18    29 p     comp
##  2 audi         a4          1.8  1999     4 manua f        21    29 p     comp
##  3 audi         a4          2.8  1999     6 auto( f        16    26 p     comp
##  4 audi         a4          2.8  1999     6 manua f        18    26 p     comp
##  5 audi         a4 quatt   1.8  1999     4 manua 4        18    26 p     comp
##  6 audi         a4 quatt   1.8  1999     4 auto( 4        16    25 p     comp
##  7 audi         a4 quatt   2.8  1999     6 auto( 4        15    25 p     comp
##  8 audi         a4 quatt   2.8  1999     6 manua 4        17    25 p     comp
##  9 audi         a6 quatt   2.8  1999     6 auto( 4        15    24 p     mids
## 10 chevrolet    c1500 su   5.7  1999     8 auto( r        13    17 r     suv  
## #  with 107 more rows

print(year_2008)

## # A tibble: 117 x 11
##    manufacturer model     displ  year   cyl trans  drv     cty   hwy fl    class
##    <chr>        <chr>     <dbl> <int> <int> <chr>  <chr> <int> <int> <chr> <chr>
##  1 audi         a4          2    2008     4 manua f        20    31 p     comp
##  2 audi         a4          2    2008     4 auto( f        21    30 p     comp
##  3 audi         a4          3.1  2008     6 auto( f        18    27 p     comp
##  4 audi         a4 quatt   2    2008     4 manua 4        20    28 p     comp
##  5 audi         a4 quatt   2    2008     4 auto( 4        19    27 p     comp
##  6 audi         a4 quatt   3.1  2008     6 auto( 4        17    25 p     comp
##  7 audi         a4 quatt   3.1  2008     6 manua 4        15    25 p     comp
##  8 audi         a6 quatt   3.1  2008     6 auto( 4        17    25 p     mids
##  9 audi         a6 quatt   4.2  2008     8 auto( 4        16    23 p     mids
## 10 chevrolet    c1500 su   5.3  2008     8 auto( r        14    20 r     suv  
## #  with 107 more rows
…
